\relax 
\catcode `"\active 
\select@language{dutch}
\@writefile{toc}{\select@language{dutch}}
\@writefile{lof}{\select@language{dutch}}
\@writefile{lot}{\select@language{dutch}}
\@writefile{toc}{\contentsline {section}{\numberline {1}Total Programming}{2}}
\@writefile{toc}{\contentsline {subsection}{\numberline {1.1}Methods}{2}}
\@writefile{toc}{\contentsline {subsection}{\numberline {1.2}Basic inspectors}{2}}
\@writefile{toc}{\contentsline {subsection}{\numberline {1.3}Annotations}{2}}
\@writefile{toc}{\contentsline {subsubsection}{\numberline {1.3.1}@basic}{2}}
\@writefile{toc}{\contentsline {subsubsection}{\numberline {1.3.2}@Immutable}{2}}
\@writefile{toc}{\contentsline {subsubsection}{\numberline {1.3.3}@post}{2}}
\@writefile{toc}{\contentsline {subsubsection}{\numberline {1.3.4}@effect}{3}}
\@writefile{toc}{\contentsline {subsubsection}{\numberline {1.3.5}@Model}{3}}
\@writefile{toc}{\contentsline {subsection}{\numberline {1.4}Total Programming}{3}}
\@writefile{toc}{\contentsline {subsection}{\numberline {1.5}Encapsulation}{3}}
\@writefile{toc}{\contentsline {subsection}{\numberline {1.6}Initialisation}{3}}
\@writefile{toc}{\contentsline {section}{\numberline {2}Nominal Programming}{4}}
\@writefile{toc}{\contentsline {subsection}{\numberline {2.1}Class invariants}{4}}
\@writefile{toc}{\contentsline {subsection}{\numberline {2.2}Raw Objects}{4}}
\@writefile{toc}{\contentsline {subsection}{\numberline {2.3}Design by contract}{4}}
\@writefile{toc}{\contentsline {subsection}{\numberline {2.4}Nominal Programming}{4}}
\@writefile{toc}{\contentsline {subsection}{\numberline {2.5}Assert statements}{4}}
\@writefile{toc}{\contentsline {subsection}{\numberline {2.6}Blackbox testing}{4}}
\@writefile{toc}{\contentsline {section}{\numberline {3}Defensive Programming}{5}}
\@writefile{toc}{\contentsline {subsection}{\numberline {3.1}Defensive Programming}{5}}
\@writefile{toc}{\contentsline {subsection}{\numberline {3.2}Method signature}{5}}
\@writefile{toc}{\contentsline {subsection}{\numberline {3.3}Specification of Exceptions}{5}}
\@writefile{toc}{\contentsline {subsection}{\numberline {3.4}Exception classes}{5}}
\@writefile{toc}{\contentsline {section}{\numberline {4}Associations with restricted multiplicity}{6}}
\@writefile{toc}{\contentsline {subsection}{\numberline {4.1}Enumerations}{6}}
\@writefile{toc}{\contentsline {subsection}{\numberline {4.2}Associations}{6}}
\@writefile{toc}{\contentsline {subsection}{\numberline {4.3}Methods for Associations}{6}}
\@writefile{toc}{\contentsline {subsection}{\numberline {4.4}Garbage Collection}{6}}
\@writefile{toc}{\contentsline {subsection}{\numberline {4.5}Destructors}{6}}
\@writefile{toc}{\contentsline {section}{\numberline {5}Associations with unrestricted multiplicity}{7}}
\@writefile{toc}{\contentsline {subsection}{\numberline {5.1}Packages}{7}}
\@writefile{toc}{\contentsline {subsection}{\numberline {5.2}Access Rights}{7}}
\@writefile{toc}{\contentsline {subsection}{\numberline {5.3}Hash structures}{7}}
\@writefile{toc}{\contentsline {subsection}{\numberline {5.4}Representation invariants}{7}}
\@writefile{toc}{\contentsline {section}{\numberline {6}Inheritance}{8}}
\@writefile{toc}{\contentsline {subsection}{\numberline {6.1}Basics}{8}}
\@writefile{toc}{\contentsline {subsection}{\numberline {6.2}Polymorphism}{8}}
\@writefile{toc}{\contentsline {subsection}{\numberline {6.3}instanceOf}{8}}
\@writefile{toc}{\contentsline {section}{\numberline {7}Specialization inheritance}{9}}
\@writefile{toc}{\contentsline {subsection}{\numberline {7.1}Overriding methods}{9}}
\@writefile{toc}{\contentsline {subsection}{\numberline {7.2}Dynamic Binding}{9}}
\@writefile{toc}{\contentsline {subsection}{\numberline {7.3}Static Binding}{9}}
\@writefile{toc}{\contentsline {section}{\numberline {8}The Liskov Substitute Principle}{10}}
\@writefile{toc}{\contentsline {subsection}{\numberline {8.1}basics}{10}}
\@writefile{toc}{\contentsline {subsection}{\numberline {8.2}Dynamic Binding}{10}}
\@writefile{toc}{\contentsline {subsection}{\numberline {8.3}Double dispatch}{10}}
\@writefile{toc}{\contentsline {section}{\numberline {9}Interfaces}{11}}
\@writefile{toc}{\contentsline {subsection}{\numberline {9.1}Binary Trees}{11}}
\@writefile{toc}{\contentsline {subsection}{\numberline {9.2}Search trees}{11}}
\@writefile{toc}{\contentsline {subsection}{\numberline {9.3}Interfaces}{11}}
\@writefile{toc}{\contentsline {section}{\numberline {10}Iterators}{12}}
\@writefile{toc}{\contentsline {subsection}{\numberline {10.1}Static member classes}{12}}
\@writefile{toc}{\contentsline {subsection}{\numberline {10.2}Local classes}{12}}
\@writefile{toc}{\contentsline {subsection}{\numberline {10.3}Anonymous classes}{12}}
\@writefile{toc}{\contentsline {section}{\numberline {11}Generic classes}{13}}
